---
http_interactions:
- request:
    method: get
    uri: http://localhost:3000/api/v1/orders/live
    body:
      encoding: US-ASCII
      string: ''
    headers:
      Accept:
      - "*/*; q=0.5, application/xml"
      Accept-Encoding:
      - gzip, deflate
      Content-Type:
      - application/json
      Date:
      - Fri, 10 Apr 2015 04:43:36 GMT
      Authorization:
      - APIAuth REMITANO_KEY:f+OxsFvrvuTT8rjnNuBVrhZMwAM=
      User-Agent:
      - Ruby
  response:
    status:
      code: 200
      message: OK
    headers:
      Content-Type:
      - application/json
      Content-Length:
      - '1628'
      Etag:
      - '"c41ad331bda0092f645ebca527abf4f5"'
      Cache-Control:
      - max-age=0, private, must-revalidate
      X-Request-Id:
      - dba11e4a-33e9-4db3-877c-012d367fc642
      X-Runtime:
      - '0.062261'
      Connection:
      - keep-alive
      Server:
      - thin
    body:
      encoding: UTF-8
      string: '{"orders":[{"id":3996,"price":238.4,"quantity":2.6926,"side":"buy","created_at":"2015-04-10T03:25:08.339Z","order_type":"limit","filled_quantity":0.0,"status":"live"},{"id":3994,"price":238.58,"quantity":0.012,"side":"buy","created_at":"2015-04-10T03:25:08.151Z","order_type":"limit","filled_quantity":0.0,"status":"live"},{"id":3993,"price":238.79,"quantity":0.011,"side":"buy","created_at":"2015-04-10T03:25:08.053Z","order_type":"limit","filled_quantity":0.0,"status":"live"},{"id":3992,"price":238.89,"quantity":0.012,"side":"buy","created_at":"2015-04-10T03:25:07.950Z","order_type":"limit","filled_quantity":0.0,"status":"live"},{"id":3991,"price":239.13,"quantity":0.011,"side":"buy","created_at":"2015-04-10T03:25:07.855Z","order_type":"limit","filled_quantity":0.0,"status":"live"},{"id":3990,"price":239.29,"quantity":0.001,"side":"buy","created_at":"2015-04-10T03:25:07.764Z","order_type":"limit","filled_quantity":0.0,"status":"live"},{"id":3989,"price":240.95,"quantity":0.01,"side":"sell","created_at":"2015-04-10T03:25:07.671Z","order_type":"limit","filled_quantity":0.0,"status":"live"},{"id":3988,"price":240.83,"quantity":18.717,"side":"sell","created_at":"2015-04-10T03:25:07.574Z","order_type":"limit","filled_quantity":0.0,"status":"live"},{"id":3987,"price":240.78,"quantity":3.314,"side":"sell","created_at":"2015-04-10T03:25:07.480Z","order_type":"limit","filled_quantity":0.0,"status":"live"},{"id":3986,"price":240.78,"quantity":0.043,"side":"sell","created_at":"2015-04-10T03:25:07.351Z","order_type":"limit","filled_quantity":0.0,"status":"live"}],"current_page":1,"total_pages":86,"total_items":858}'
    http_version: 
  recorded_at: Fri, 10 Apr 2015 04:43:36 GMT
recorded_with: VCR 2.6.0
